{"showTime":79200000,"txt":"软件接口免费，请勿受骗购买！",
"limitShowText":"提示 适配『眸海/繁星/影视仓等』多仓App 观看",
"msg": "📢公告：欢迎关注【X开源精粹】！！初次使用，①首先：进入  “设置-多线路”，点击  ‘确认’；②然后，打开  “单线记录”，选择  ‘X开源精彩’线路即可畅游。🎉生活简单而精彩，快乐追剧，精彩人生！",
"date": "20240802000000",
"duration": 60}
